﻿"Date","Price","Open","High","Low","Vol.","Change %"
"Mar 27, 2020","1,075.92","1,079.67","1,086.11","1,067.26","20.51M","-0.97%"
"Mar 26, 2020","1,086.43","1,054.99","1,086.45","1,049.13","23.87M","2.93%"
"Mar 25, 2020","1,055.50","1,069.40","1,082.49","1,038.26","28.78M","2.37%"
"Mar 24, 2020","1,031.09","1,026.00","1,034.22","1,007.29","26.82M","4.09%"
"Mar 23, 2020","990.61","989.33","1,018.68","984.27","31.24M","-3.95%"
"Mar 20, 2020","1,031.37","1,055.59","1,061.83","1,024.50","40.29M","1.52%"
"Mar 19, 2020","1,015.93","1,009.16","1,023.28","996.62","34.89M","0.88%"
"Mar 18, 2020","1,007.04","1,015.08","1,028.03","989.09","36.00M","-2.47%"
"Mar 17, 2020","1,032.59","1,038.13","1,047.96","989.49","36.33M","1.50%"
"Mar 16, 2020","1,017.31","1,002.05","1,026.38","959.72","40.63M","-2.32%"
"Mar 13, 2020","1,041.51","1,051.41","1,120.39","1,031.19","39.71M","1.09%"
"Mar 12, 2020","1,030.26","1,051.03","1,076.24","1,027.58","37.52M","-8.03%"
"Mar 11, 2020","1,120.20","1,151.34","1,160.94","1,114.98","25.64M","-2.01%"
"Mar 10, 2020","1,143.17","1,163.85","1,195.11","1,135.10","28.76M","-1.43%"
"Mar 09, 2020","1,159.79","1,149.29","1,187.00","1,143.95","33.42M","-5.49%"
"Mar 06, 2020","1,227.15","1,242.08","1,245.81","1,212.29","19.67M","-2.81%"
"Mar 05, 2020","1,262.59","1,287.88","1,292.59","1,257.87","16.90M","-0.71%"
"Mar 04, 2020","1,271.58","1,263.90","1,281.48","1,255.69","18.01M","0.50%"
"Mar 03, 2020","1,265.27","1,255.44","1,272.70","1,245.71","20.78M","2.81%"
"Mar 02, 2020","1,230.64","1,243.34","1,261.61","1,215.45","22.70M","0.98%"
"Feb 28, 2020","1,218.70","1,217.17","1,231.31","1,201.33","26.72M","-2.46%"
"Feb 27, 2020","1,249.38","1,281.74","1,281.74","1,237.85","21.47M","-2.80%"
"Feb 26, 2020","1,285.31","1,285.29","1,289.53","1,225.81","23.92M","-0.07%"
"Feb 25, 2020","1,286.20","1,308.52","1,321.47","1,279.12","16.62M","-1.76%"
"Feb 24, 2020","1,309.19","1,349.48","1,349.48","1,306.05","17.43M","-3.84%"
"Feb 21, 2020","1,361.53","1,372.47","1,372.47","1,358.49","12.03M","-0.85%"
"Feb 20, 2020","1,373.27","1,376.92","1,390.30","1,370.25","12.43M","-0.25%"
"Feb 19, 2020","1,376.67","1,365.10","1,377.67","1,364.82","12.46M","0.96%"
"Feb 18, 2020","1,363.56","1,352.03","1,364.58","1,341.83","10.87M","0.67%"
"Feb 17, 2020","1,354.48","1,356.04","1,361.11","1,348.81","9.12M","-0.07%"
"Feb 14, 2020","1,355.40","1,348.05","1,356.69","1,348.05","10.80M","0.76%"
"Feb 13, 2020","1,345.14","1,347.40","1,351.01","1,338.21","13.75M","-0.20%"
"Feb 12, 2020","1,347.79","1,351.79","1,352.09","1,339.10","15.37M","-0.30%"
"Feb 11, 2020","1,351.88","1,334.31","1,351.88","1,334.31","15.09M","1.38%"
"Feb 10, 2020","1,333.47","1,339.24","1,339.24","1,325.55","10.63M","-0.51%"
"Feb 07, 2020","1,340.25","1,342.69","1,345.87","1,334.34","13.70M","-0.19%"
"Feb 06, 2020","1,342.84","1,331.06","1,342.84","1,325.75","18.53M","0.92%"
"Feb 05, 2020","1,330.64","1,299.21","1,333.28","1,292.07","25.49M","2.42%"
"Feb 04, 2020","1,299.14","1,280.31","1,301.15","1,278.46","24.80M","1.59%"
"Feb 03, 2020","1,278.76","1,276.29","1,280.50","1,272.70","13.27M","0.08%"
"Jan 31, 2020","1,277.80","1,277.63","1,288.00","1,276.89","17.35M","0.22%"
"Jan 30, 2020","1,274.98","1,291.78","1,291.78","1,274.53","12.66M","-1.57%"
"Jan 29, 2020","1,295.34","1,277.47","1,295.41","1,277.47","11.78M","1.44%"
"Jan 28, 2020","1,276.93","1,270.88","1,277.65","1,263.07","11.47M","0.64%"
"Jan 27, 2020","1,268.78","1,295.27","1,295.27","1,268.33","12.03M","-2.36%"
"Jan 24, 2020","1,299.42","1,289.90","1,304.56","1,289.90","12.04M","0.81%"
"Jan 23, 2020","1,288.94","1,293.99","1,295.79","1,284.95","12.78M","-0.41%"
"Jan 22, 2020","1,294.20","1,286.62","1,300.36","1,286.62","11.41M","0.61%"
"Jan 21, 2020","1,286.32","1,287.36","1,287.36","1,276.44","9.70M","-0.09%"
"Jan 20, 2020","1,287.53","1,285.61","1,294.10","1,283.21","7.93M","0.25%"
"Jan 17, 2020","1,284.30","1,273.22","1,286.74","1,273.22","13.03M","0.89%"
"Jan 16, 2020","1,272.92","1,274.27","1,280.55","1,268.75","13.27M","-0.09%"
"Jan 15, 2020","1,274.01","1,254.65","1,274.03","1,251.58","15.90M","1.51%"
"Jan 14, 2020","1,255.01","1,250.71","1,255.01","1,243.00","11.23M","0.36%"
"Jan 13, 2020","1,250.50","1,247.56","1,254.47","1,247.52","10.46M","0.30%"
"Jan 10, 2020","1,246.79","1,246.60","1,250.72","1,242.23","11.73M","0.05%"
"Jan 09, 2020","1,246.12","1,240.86","1,250.70","1,240.86","12.77M","0.57%"
"Jan 08, 2020","1,239.03","1,239.87","1,241.64","1,231.92","21.02M","-0.16%"
"Jan 07, 2020","1,240.97","1,240.10","1,253.73","1,237.15","11.68M","0.47%"
"Jan 06, 2020","1,235.16","1,237.05","1,237.05","1,219.64","10.82M","-0.19%"
"Jan 03, 2020","1,237.55","1,251.98","1,251.98","1,237.36","10.43M","-1.25%"
"Jan 02, 2020","1,253.25","1,254.21","1,259.59","1,251.95","10.43M","-0.05%"
"Dec 30, 2019","1,253.90","1,264.08","1,264.90","1,253.90","7.23M","-0.83%"
"Dec 27, 2019","1,264.36","1,259.06","1,265.38","1,255.25","6.47M","0.44%"
"Dec 23, 2019","1,258.88","1,247.54","1,258.88","1,247.32","7.09M","0.94%"
"Dec 20, 2019","1,247.15","1,240.58","1,250.37","1,240.15","16.61M","0.52%"
"Dec 19, 2019","1,240.69","1,241.55","1,246.72","1,236.51","11.16M","-0.02%"
"Dec 18, 2019","1,240.93","1,252.34","1,255.83","1,240.93","13.66M","-1.09%"
"Dec 17, 2019","1,254.59","1,257.47","1,259.70","1,252.08","15.24M","-0.20%"
"Dec 16, 2019","1,257.06","1,235.68","1,259.45","1,235.68","12.93M","1.79%"
"Dec 13, 2019","1,234.90","1,235.12","1,245.94","1,231.80","16.82M","0.11%"
"Dec 12, 2019","1,233.59","1,228.67","1,234.60","1,227.72","12.10M","0.41%"
"Dec 11, 2019","1,228.52","1,232.76","1,234.21","1,225.31","11.26M","-0.36%"
"Dec 10, 2019","1,232.95","1,234.04","1,236.50","1,224.91","10.41M","-0.13%"
"Dec 09, 2019","1,234.54","1,240.79","1,243.75","1,231.47","9.63M","-0.47%"
"Dec 06, 2019","1,240.31","1,231.65","1,241.15","1,228.89","10.42M","0.71%"
"Dec 05, 2019","1,231.55","1,223.90","1,234.21","1,223.90","12.56M","0.65%"
"Dec 04, 2019","1,223.58","1,215.21","1,227.34","1,215.21","9.57M","0.69%"
"Dec 03, 2019","1,215.22","1,214.88","1,226.58","1,212.24","11.58M","0.05%"
"Dec 02, 2019","1,214.66","1,219.24","1,227.55","1,214.66","14.21M","-0.34%"
"Nov 29, 2019","1,218.78","1,225.23","1,227.83","1,218.78","9.96M","-0.65%"
"Nov 28, 2019","1,226.73","1,225.02","1,227.22","1,222.54","7.05M","0.11%"
"Nov 27, 2019","1,225.41","1,224.38","1,226.66","1,219.12","10.63M","0.10%"
"Nov 26, 2019","1,224.21","1,212.79","1,224.58","1,210.46","17.14M","0.95%"
"Nov 25, 2019","1,212.67","1,196.30","1,216.01","1,196.30","12.15M","1.38%"
"Nov 22, 2019","1,196.22","1,187.40","1,200.63","1,184.79","12.50M","0.75%"
"Nov 21, 2019","1,187.37","1,198.97","1,198.97","1,186.52","12.48M","-1.02%"
"Nov 20, 2019","1,199.58","1,205.76","1,208.22","1,196.27","14.16M","-0.50%"
"Nov 19, 2019","1,205.55","1,206.60","1,211.67","1,204.19","12.55M","-0.03%"
"Nov 18, 2019","1,205.94","1,209.60","1,213.61","1,203.83","15.34M","-0.26%"
"Nov 15, 2019","1,209.14","1,202.10","1,209.83","1,200.87","11.69M","0.72%"
"Nov 14, 2019","1,200.51","1,204.66","1,208.73","1,196.99","12.31M","-0.38%"
"Nov 13, 2019","1,205.14","1,198.93","1,207.37","1,191.09","21.50M","0.44%"
"Nov 12, 2019","1,199.92","1,196.05","1,199.92","1,193.76","11.43M","0.38%"
"Nov 11, 2019","1,195.40","1,195.91","1,200.50","1,190.23","14.29M","-0.04%"
"Nov 08, 2019","1,195.87","1,184.34","1,196.27","1,182.71","25.09M","1.02%"
"Nov 07, 2019","1,183.81","1,166.70","1,185.27","1,166.70","18.85M","1.61%"
"Nov 06, 2019","1,165.05","1,168.63","1,168.63","1,157.80","26.49M","-0.33%"
"Nov 05, 2019","1,168.93","1,181.12","1,181.41","1,165.25","18.78M","-0.99%"
"Nov 04, 2019","1,180.60","1,172.97","1,180.60","1,170.69","14.89M","0.65%"
"Nov 01, 2019","1,172.97","1,149.82","1,173.02","1,148.95","11.10M","2.05%"
"Oct 31, 2019","1,149.41","1,155.27","1,159.00","1,148.01","13.71M","-0.55%"
"Oct 30, 2019","1,155.81","1,146.80","1,155.81","1,145.33","13.35M","0.79%"
"Oct 29, 2019","1,146.80","1,158.30","1,158.86","1,135.44","14.27M","-1.06%"
"Oct 28, 2019","1,159.09","1,150.02","1,159.70","1,145.60","9.14M","0.88%"
"Oct 25, 2019","1,148.93","1,144.85","1,148.93","1,142.75","9.38M","0.38%"
"Oct 24, 2019","1,144.58","1,142.25","1,152.88","1,142.25","11.15M","0.19%"
"Oct 23, 2019","1,142.43","1,139.56","1,144.45","1,135.31","14.18M","0.10%"
"Oct 22, 2019","1,141.27","1,133.22","1,142.42","1,128.53","10.69M","0.71%"
"Oct 21, 2019","1,133.27","1,121.68","1,133.52","1,121.68","11.40M","1.07%"
"Oct 18, 2019","1,121.24","1,131.75","1,132.37","1,121.14","10.09M","-0.96%"
"Oct 17, 2019","1,132.16","1,130.97","1,138.14","1,122.98","11.85M","0.08%"
"Oct 16, 2019","1,131.31","1,139.65","1,141.84","1,126.64","12.81M","-0.75%"
"Oct 15, 2019","1,139.83","1,128.12","1,139.83","1,127.68","12.86M","1.05%"
"Oct 14, 2019","1,128.04","1,117.70","1,128.04","1,115.32","11.29M","0.95%"
"Oct 11, 2019","1,117.37","1,105.86","1,117.37","1,104.64","15.88M","1.03%"
"Oct 10, 2019","1,106.02","1,114.42","1,114.42","1,094.77","16.48M","-0.72%"
"Oct 09, 2019","1,114.01","1,112.30","1,120.34","1,108.24","10.42M","0.14%"
"Oct 08, 2019","1,112.44","1,122.19","1,128.20","1,110.54","10.11M","-0.83%"
"Oct 07, 2019","1,121.70","1,113.46","1,123.28","1,113.39","8.92M","0.77%"
"Oct 04, 2019","1,113.09","1,101.40","1,116.38","1,101.40","10.84M","1.09%"
"Oct 03, 2019","1,101.06","1,099.27","1,106.30","1,092.23","12.46M","0.12%"
"Oct 02, 2019","1,099.76","1,127.89","1,127.89","1,098.25","16.76M","-2.57%"
"Oct 01, 2019","1,128.80","1,142.29","1,150.55","1,128.18","15.21M","-1.13%"
"Sep 30, 2019","1,141.65","1,147.76","1,148.62","1,141.15","12.36M","-0.61%"
"Sep 27, 2019","1,148.64","1,150.02","1,152.40","1,143.29","9.94M","-0.15%"
"Sep 26, 2019","1,150.33","1,143.01","1,151.07","1,140.94","11.99M","0.64%"
"Sep 25, 2019","1,142.98","1,154.15","1,154.15","1,138.07","8.11M","-0.99%"
"Sep 24, 2019","1,154.43","1,149.78","1,159.19","1,149.71","10.78M","0.49%"
"Sep 23, 2019","1,148.82","1,150.09","1,156.39","1,145.60","13.30M","-0.13%"
"Sep 20, 2019","1,150.31","1,146.50","1,152.30","1,143.74","20.90M","0.33%"
"Sep 19, 2019","1,146.50","1,144.72","1,148.29","1,142.57","11.79M","0.24%"
"Sep 18, 2019","1,143.80","1,144.25","1,148.03","1,141.07","12.97M","-0.05%"
"Sep 17, 2019","1,144.42","1,138.74","1,144.75","1,137.31","14.41M","0.49%"
"Sep 16, 2019","1,138.82","1,147.60","1,148.58","1,138.18","14.03M","-0.79%"
"Sep 13, 2019","1,147.91","1,150.57","1,152.03","1,142.50","15.31M","-0.11%"
"Sep 12, 2019","1,149.22","1,154.43","1,161.64","1,145.19","14.28M","-0.30%"
"Sep 11, 2019","1,152.66","1,132.60","1,153.26","1,132.60","15.77M","1.82%"
"Sep 10, 2019","1,132.09","1,149.41","1,149.76","1,122.68","18.91M","-1.52%"
"Sep 09, 2019","1,149.51","1,157.21","1,160.39","1,147.66","17.13M","-0.63%"
"Sep 06, 2019","1,156.74","1,156.37","1,162.17","1,153.57","11.82M","0.10%"
"Sep 05, 2019","1,155.62","1,152.43","1,162.05","1,152.43","15.32M","0.36%"
"Sep 04, 2019","1,151.50","1,145.07","1,159.69","1,145.07","13.68M","0.60%"
"Sep 03, 2019","1,144.64","1,141.41","1,148.63","1,136.25","12.77M","0.26%"
"Sep 02, 2019","1,141.71","1,133.90","1,146.24","1,133.39","8.81M","0.71%"
"Aug 30, 2019","1,133.69","1,124.32","1,134.21","1,121.67","15.34M","0.96%"
"Aug 29, 2019","1,122.86","1,124.13","1,127.89","1,117.86","14.07M","-0.04%"
"Aug 28, 2019","1,123.27","1,129.56","1,131.91","1,119.09","14.11M","-0.54%"
"Aug 27, 2019","1,129.36","1,124.73","1,129.83","1,121.39","20.02M","0.44%"
"Aug 26, 2019","1,124.42","1,134.39","1,134.39","1,114.80","10.23M","-0.97%"
"Aug 23, 2019","1,135.39","1,139.34","1,147.81","1,131.97","12.97M","-0.31%"
"Aug 22, 2019","1,138.95","1,142.04","1,147.43","1,135.68","19.65M","-0.30%"
"Aug 21, 2019","1,142.40","1,124.04","1,142.47","1,124.04","12.96M","1.63%"
"Aug 20, 2019","1,124.10","1,123.47","1,132.84","1,120.10","13.17M","0.03%"
"Aug 19, 2019","1,123.79","1,120.95","1,126.10","1,113.07","12.38M","0.31%"
"Aug 16, 2019","1,120.29","1,099.15","1,120.76","1,096.38","17.10M","1.94%"
"Aug 15, 2019","1,098.93","1,099.86","1,113.30","1,086.52","17.26M","0.02%"
"Aug 14, 2019","1,098.70","1,113.18","1,113.45","1,098.55","15.22M","-1.35%"
"Aug 13, 2019","1,113.76","1,104.31","1,117.61","1,098.43","15.68M","0.86%"
"Aug 12, 2019","1,104.30","1,113.92","1,124.86","1,103.38","10.67M","-0.87%"
"Aug 09, 2019","1,113.97","1,124.77","1,130.28","1,113.97","12.72M","-0.69%"
"Aug 08, 2019","1,121.75","1,105.98","1,122.21","1,104.84","15.37M","1.55%"
"Aug 07, 2019","1,104.65","1,099.10","1,114.50","1,097.77","16.11M","0.53%"
"Aug 06, 2019","1,098.80","1,090.06","1,104.41","1,089.75","11.41M","0.88%"
"Aug 05, 2019","1,089.22","1,117.05","1,117.05","1,089.22","12.25M","-2.62%"
"Aug 02, 2019","1,118.53","1,137.69","1,137.69","1,117.33","13.43M","-1.75%"
"Aug 01, 2019","1,138.42","1,124.19","1,140.97","1,121.14","9.20M","1.25%"
"Jul 31, 2019","1,124.37","1,119.69","1,126.21","1,116.47","11.24M","0.48%"
"Jul 30, 2019","1,119.01","1,139.18","1,139.18","1,117.70","10.20M","-1.79%"
"Jul 29, 2019","1,139.35","1,138.08","1,145.11","1,135.76","7.73M","0.07%"
"Jul 26, 2019","1,138.59","1,141.00","1,144.34","1,137.59","8.77M","-0.23%"
"Jul 25, 2019","1,141.16","1,140.01","1,148.36","1,136.08","10.21M","0.14%"
"Jul 24, 2019","1,139.51","1,133.17","1,141.68","1,133.17","10.51M","0.54%"
"Jul 23, 2019","1,133.42","1,128.92","1,133.44","1,127.35","10.54M","0.44%"
"Jul 22, 2019","1,128.45","1,128.18","1,131.90","1,125.27","9.13M","0.00%"
"Jul 19, 2019","1,128.41","1,131.30","1,134.02","1,124.47","10.61M","-0.26%"
"Jul 18, 2019","1,131.32","1,130.57","1,131.50","1,123.04","10.52M","-0.10%"
"Jul 17, 2019","1,132.43","1,134.04","1,138.18","1,131.90","7.01M","-0.20%"
"Jul 16, 2019","1,134.69","1,129.95","1,135.17","1,124.49","9.08M","0.41%"
"Jul 15, 2019","1,130.10","1,122.73","1,132.25","1,121.98","9.12M","0.54%"
"Jul 12, 2019","1,124.03","1,135.12","1,137.10","1,123.31","11.98M","-0.98%"
"Jul 11, 2019","1,135.14","1,139.16","1,144.95","1,134.45","11.42M","-0.31%"
"Jul 10, 2019","1,138.70","1,134.81","1,142.13","1,129.68","11.92M","0.31%"
"Jul 09, 2019","1,135.18","1,141.14","1,141.14","1,128.33","14.63M","-0.54%"
"Jul 08, 2019","1,141.29","1,140.76","1,145.73","1,137.53","9.62M","0.02%"
"Jul 05, 2019","1,141.09","1,154.05","1,155.28","1,139.82","10.75M","-1.12%"
"Jul 04, 2019","1,153.96","1,159.03","1,161.23","1,150.35","8.13M","-0.49%"
"Jul 03, 2019","1,159.66","1,144.67","1,163.51","1,142.70","11.48M","1.30%"
"Jul 02, 2019","1,144.83","1,141.42","1,145.33","1,138.62","10.29M","0.30%"
"Jul 01, 2019","1,141.42","1,122.85","1,146.12","1,122.85","13.37M","1.66%"
"Jun 28, 2019","1,122.77","1,113.69","1,126.54","1,112.21","13.47M","0.79%"
"Jun 27, 2019","1,114.01","1,124.99","1,125.03","1,110.97","13.75M","-0.98%"
"Jun 26, 2019","1,125.00","1,131.54","1,131.77","1,124.92","12.87M","-0.53%"
"Jun 25, 2019","1,130.99","1,128.72","1,131.27","1,121.75","14.03M","0.15%"
"Jun 24, 2019","1,129.26","1,129.42","1,140.50","1,126.18","16.56M","-0.04%"
"Jun 21, 2019","1,129.68","1,140.76","1,141.29","1,129.68","22.40M","-1.02%"
"Jun 20, 2019","1,141.28","1,143.92","1,146.86","1,140.13","13.86M","-0.08%"
"Jun 19, 2019","1,142.19","1,138.71","1,142.19","1,130.08","21.14M","0.31%"
"Jun 18, 2019","1,138.66","1,129.09","1,140.01","1,118.93","25.77M","0.89%"
"Jun 17, 2019","1,128.56","1,125.22","1,129.47","1,120.41","11.29M","0.23%"
"Jun 14, 2019","1,125.94","1,132.48","1,132.48","1,122.42","12.37M","-0.69%"
"Jun 13, 2019","1,133.82","1,137.54","1,141.06","1,131.68","12.51M","-0.36%"
"Jun 12, 2019","1,137.97","1,129.49","1,138.10","1,125.07","14.66M","0.75%"
"Jun 11, 2019","1,129.49","1,113.42","1,133.37","1,113.42","20.75M","1.49%"
"Jun 07, 2019","1,112.86","1,107.78","1,112.97","1,103.29","14.37M","0.46%"
"Jun 06, 2019","1,107.72","1,096.88","1,118.58","1,096.88","16.93M","1.20%"
"Jun 04, 2019","1,094.54","1,099.53","1,099.53","1,081.04","16.92M","-0.49%"
"Jun 03, 2019","1,099.94","1,096.56","1,099.96","1,076.68","19.28M","0.26%"
"May 29, 2019","1,097.12","1,126.79","1,126.79","1,096.79","15.83M","-2.71%"
"May 28, 2019","1,127.70","1,115.12","1,128.36","1,113.59","26.98M","1.16%"
"May 27, 2019","1,114.78","1,124.87","1,127.28","1,114.76","8.54M","-0.73%"
"May 24, 2019","1,122.97","1,119.53","1,127.63","1,119.53","12.62M","0.39%"
"May 23, 2019","1,118.62","1,132.11","1,132.11","1,116.77","12.74M","-1.21%"
"May 22, 2019","1,132.36","1,120.88","1,134.23","1,120.71","12.08M","1.05%"
"May 21, 2019","1,120.55","1,109.46","1,121.49","1,109.46","11.75M","1.06%"
"May 20, 2019","1,108.78","1,119.53","1,122.40","1,104.49","15.87M","-0.82%"
"May 16, 2019","1,117.93","1,104.41","1,118.94","1,103.15","12.86M","1.27%"
"May 15, 2019","1,103.92","1,108.90","1,118.85","1,094.74","14.19M","-0.45%"
"May 14, 2019","1,108.87","1,102.52","1,110.61","1,100.03","15.42M","0.63%"
"May 13, 2019","1,101.88","1,124.82","1,124.82","1,099.34","17.60M","-2.06%"
"May 10, 2019","1,125.11","1,126.95","1,131.98","1,122.39","21.58M","-0.07%"
"May 09, 2019","1,125.93","1,138.25","1,138.31","1,121.14","14.66M","-1.14%"
"May 08, 2019","1,138.96","1,133.64","1,141.88","1,128.47","22.60M","0.46%"
"May 07, 2019","1,133.76","1,132.06","1,144.34","1,130.37","15.36M","0.33%"
"May 06, 2019","1,130.06","1,137.85","1,137.85","1,118.83","9.29M","-0.75%"
"May 03, 2019","1,138.64","1,141.82","1,145.63","1,135.77","15.93M","-0.27%"
"May 02, 2019","1,141.69","1,153.58","1,153.58","1,139.10","15.99M","-0.99%"
"May 01, 2019","1,153.16","1,151.09","1,157.96","1,150.89","8.82M","0.30%"
"Apr 30, 2019","1,149.69","1,153.49","1,161.80","1,148.67","21.84M","-0.65%"
"Apr 29, 2019","1,157.19","1,156.34","1,159.18","1,152.27","9.75M","0.11%"
"Apr 26, 2019","1,155.96","1,139.83","1,155.96","1,139.60","10.37M","1.45%"
"Apr 25, 2019","1,139.42","1,143.06","1,145.51","1,139.02","11.06M","-0.32%"
"Apr 24, 2019","1,143.12","1,143.76","1,149.84","1,140.42","12.57M","-0.05%"
"Apr 23, 2019","1,143.74","1,141.13","1,146.21","1,135.58","14.27M","0.20%"
"Apr 17, 2019","1,141.51","1,148.67","1,149.50","1,140.10","13.29M","-0.72%"
"Apr 16, 2019","1,149.77","1,149.19","1,154.92","1,148.52","9.89M","0.05%"
"Apr 15, 2019","1,149.19","1,144.12","1,149.95","1,143.33","9.68M","0.45%"
"Apr 12, 2019","1,144.09","1,140.37","1,146.05","1,137.98","11.93M","0.32%"
"Apr 11, 2019","1,140.42","1,140.95","1,143.90","1,136.35","10.51M","-0.03%"
"Apr 10, 2019","1,140.81","1,138.95","1,143.13","1,136.34","11.68M","0.10%"
"Apr 09, 2019","1,139.68","1,142.43","1,147.33","1,137.39","10.88M","-0.35%"
"Apr 08, 2019","1,143.69","1,144.06","1,148.00","1,140.75","12.48M","-0.02%"
"Apr 05, 2019","1,143.93","1,138.03","1,147.75","1,138.03","11.23M","0.55%"
"Apr 04, 2019","1,137.68","1,147.33","1,147.33","1,137.64","12.37M","-0.81%"
"Apr 03, 2019","1,146.94","1,147.33","1,150.56","1,142.01","14.63M","-0.01%"
"Apr 02, 2019","1,147.00","1,139.44","1,148.69","1,135.56","14.52M","0.68%"
"Apr 01, 2019","1,139.30","1,123.39","1,139.90","1,123.39","13.54M","1.46%"
"Mar 29, 2019","1,122.87","1,119.32","1,127.03","1,118.46","12.89M","0.32%"
"Mar 28, 2019","1,119.29","1,118.17","1,128.25","1,116.80","12.50M","0.12%"
"Mar 27, 2019","1,118.00","1,121.43","1,127.63","1,116.35","12.10M","-0.36%"
"Mar 26, 2019","1,122.02","1,112.68","1,124.99","1,112.56","11.07M","0.87%"
"Mar 25, 2019","1,112.36","1,116.85","1,116.85","1,105.10","10.04M","-0.58%"
"Mar 22, 2019","1,118.81","1,134.79","1,135.50","1,117.98","12.09M","-1.37%"
"Mar 21, 2019","1,134.34","1,135.29","1,135.94","1,128.23","10.52M","-0.11%"
"Mar 20, 2019","1,135.56","1,138.51","1,138.89","1,133.62","10.92M","-0.30%"
"Mar 19, 2019","1,138.98","1,130.34","1,139.39","1,129.87","13.01M","0.45%"
"Mar 18, 2019","1,133.86","1,130.86","1,136.68","1,130.86","10.49M","0.26%"
"Mar 15, 2019","1,130.90","1,126.61","1,133.35","1,126.61","20.09M","0.40%"
"Mar 14, 2019","1,126.37","1,118.08","1,126.37","1,116.53","10.86M","0.70%"
"Mar 13, 2019","1,118.53","1,111.25","1,118.53","1,109.02","10.45M","0.58%"
"Mar 12, 2019","1,112.03","1,104.57","1,114.79","1,104.57","10.09M","0.73%"
"Mar 11, 2019","1,103.93","1,102.10","1,104.85","1,100.35","9.54M","0.22%"
"Mar 08, 2019","1,101.46","1,105.49","1,105.49","1,100.29","10.18M","-0.40%"
"Mar 07, 2019","1,105.86","1,108.31","1,114.33","1,105.24","12.10M","-0.21%"
"Mar 06, 2019","1,108.21","1,113.72","1,115.39","1,107.99","9.01M","-0.51%"
"Mar 05, 2019","1,113.92","1,111.27","1,114.63","1,107.97","9.93M","0.25%"
"Mar 04, 2019","1,111.15","1,106.65","1,111.57","1,103.91","12.59M","0.58%"
"Mar 01, 2019","1,104.78","1,101.34","1,108.09","1,101.34","11.15M","0.38%"
"Feb 28, 2019","1,100.56","1,097.08","1,101.57","1,093.38","14.63M","0.10%"
"Feb 27, 2019","1,099.42","1,100.72","1,104.53","1,097.58","15.38M","-0.18%"
"Feb 26, 2019","1,101.45","1,096.86","1,101.76","1,093.96","11.33M","0.40%"
"Feb 25, 2019","1,097.06","1,092.87","1,099.06","1,091.02","13.73M","0.49%"
"Feb 22, 2019","1,091.66","1,085.63","1,092.67","1,082.14","10.91M","0.43%"
"Feb 21, 2019","1,086.98","1,093.34","1,094.05","1,085.06","14.92M","-0.50%"
"Feb 20, 2019","1,092.48","1,086.32","1,092.96","1,085.86","12.38M","0.84%"
"Feb 19, 2019","1,083.41","1,091.42","1,092.91","1,080.92","12.70M","-0.81%"
"Feb 18, 2019","1,092.23","1,089.80","1,095.38","1,087.93","8.81M","0.24%"
"Feb 15, 2019","1,089.62","1,083.78","1,089.62","1,077.00","10.95M","0.55%"
"Feb 14, 2019","1,083.61","1,077.39","1,084.84","1,077.21","12.36M","0.69%"
"Feb 13, 2019","1,076.16","1,076.28","1,081.05","1,072.70","11.26M","0.01%"
"Feb 12, 2019","1,076.09","1,065.47","1,076.39","1,065.47","11.96M","1.16%"
"Feb 11, 2019","1,063.79","1,053.24","1,065.96","1,053.24","11.66M","1.13%"
"Feb 08, 2019","1,051.94","1,061.66","1,062.06","1,050.83","13.01M","-0.92%"
"Feb 07, 2019","1,061.69","1,068.02","1,073.19","1,058.36","13.51M","-0.60%"
"Feb 06, 2019","1,068.11","1,076.01","1,076.01","1,068.11","15.67M","-0.50%"
"Feb 05, 2019","1,073.44","1,050.76","1,073.54","1,050.67","18.35M","2.24%"
"Feb 04, 2019","1,049.90","1,052.59","1,053.94","1,047.00","13.95M","-0.47%"
"Feb 01, 2019","1,054.91","1,041.05","1,055.62","1,041.05","20.90M","1.86%"
"Jan 31, 2019","1,035.62","1,042.74","1,050.37","1,034.62","17.39M","-0.64%"
"Jan 30, 2019","1,042.30","1,039.14","1,043.39","1,035.54","11.43M","0.26%"
"Jan 29, 2019","1,039.62","1,031.03","1,042.46","1,030.51","11.86M","0.78%"
"Jan 28, 2019","1,031.53","1,037.44","1,039.74","1,031.42","11.45M","-0.37%"
"Jan 25, 2019","1,035.34","1,040.67","1,046.93","1,034.35","12.92M","-0.49%"
"Jan 24, 2019","1,040.48","1,042.58","1,046.92","1,037.14","14.52M","-0.23%"
"Jan 23, 2019","1,042.93","1,044.17","1,045.43","1,036.62","13.21M","-0.16%"
"Jan 22, 2019","1,044.64","1,048.27","1,052.53","1,041.22","12.11M","-0.36%"
"Jan 21, 2019","1,048.45","1,044.22","1,048.96","1,044.03","9.22M","0.40%"
"Jan 18, 2019","1,044.29","1,037.19","1,047.02","1,037.19","13.42M","0.78%"
"Jan 17, 2019","1,036.19","1,032.88","1,038.67","1,026.19","11.94M","0.32%"
"Jan 16, 2019","1,032.84","1,024.41","1,036.69","1,024.41","13.26M","0.84%"
"Jan 15, 2019","1,024.28","1,023.12","1,029.02","1,020.89","11.03M","0.30%"
"Jan 14, 2019","1,021.22","1,036.17","1,036.17","1,019.42","12.76M","-1.58%"
"Jan 11, 2019","1,037.65","1,038.28","1,046.97","1,033.27","11.59M","-0.02%"
"Jan 10, 2019","1,037.85","1,042.22","1,042.59","1,032.47","12.21M","-0.59%"
"Jan 09, 2019","1,044.04","1,038.73","1,056.80","1,038.73","15.70M","0.64%"
"Jan 08, 2019","1,037.40","1,027.79","1,044.59","1,026.74","15.73M","0.93%"
"Jan 07, 2019","1,027.82","1,020.39","1,029.93","1,013.67","13.22M","0.75%"
"Jan 04, 2019","1,020.17","996.57","1,020.17","996.57","12.83M","2.49%"
"Jan 03, 2019","995.37","1,003.54","1,003.54","990.87","11.26M","-0.93%"
"Jan 02, 2019","1,004.76","994.45","1,008.48","988.94","10.90M","0.99%"
"Dec 28, 2018","994.92","982.56","998.93","982.56","9.53M","1.44%"
"Dec 27, 2018","980.75","997.87","1,009.18","980.75","10.64M","-1.72%"
"Dec 21, 2018","997.93","1,004.92","1,004.92","986.31","24.46M","-0.75%"
"Dec 20, 2018","1,005.51","1,019.47","1,019.47","1,002.24","15.64M","-1.75%"
"Dec 19, 2018","1,023.41","1,030.29","1,030.29","1,021.10","15.23M","-0.69%"
"Dec 18, 2018","1,030.48","1,037.70","1,037.70","1,026.84","14.23M","-0.72%"
"Dec 17, 2018","1,037.93","1,046.07","1,046.07","1,037.23","13.42M","-0.95%"
"Dec 14, 2018","1,047.89","1,050.01","1,050.69","1,040.05","13.76M","-0.24%"
"Dec 13, 2018","1,050.41","1,041.89","1,051.66","1,037.88","13.53M","0.86%"
"Dec 12, 2018","1,041.47","1,037.36","1,041.52","1,031.77","14.63M","0.45%"
"Dec 11, 2018","1,036.84","1,026.63","1,043.42","1,026.63","14.14M","1.08%"
"Dec 10, 2018","1,025.76","1,037.19","1,037.19","1,022.14","14.31M","-1.26%"
"Dec 07, 2018","1,038.90","1,025.15","1,045.56","1,025.15","13.79M","1.37%"
"Dec 06, 2018","1,024.85","1,045.80","1,045.80","1,021.20","14.69M","-2.02%"
"Dec 05, 2018","1,045.95","1,045.39","1,048.61","1,031.64","10.95M","-0.04%"
"Dec 04, 2018","1,046.34","1,043.92","1,051.16","1,041.65","11.51M","0.20%"
"Dec 03, 2018","1,044.20","1,044.68","1,063.87","1,044.20","14.72M","0.35%"
"Nov 30, 2018","1,040.54","1,045.02","1,047.69","1,038.70","28.96M","-0.39%"
"Nov 29, 2018","1,044.66","1,044.10","1,054.11","1,042.80","13.68M","0.13%"
"Nov 28, 2018","1,043.31","1,045.17","1,049.36","1,037.86","14.25M","-0.17%"
"Nov 27, 2018","1,045.10","1,051.63","1,055.96","1,038.33","14.06M","-0.62%"
"Nov 26, 2018","1,051.59","1,033.18","1,052.21","1,033.18","14.04M","1.88%"
"Nov 23, 2018","1,032.17","1,016.58","1,033.34","1,014.26","12.35M","1.49%"
"Nov 22, 2018","1,017.04","1,016.91","1,020.48","1,010.62","10.35M","0.03%"
"Nov 21, 2018","1,016.71","1,012.48","1,017.13","1,006.58","16.49M","0.42%"
"Nov 20, 2018","1,012.44","1,027.64","1,027.64","1,001.62","17.70M","-1.58%"
"Nov 19, 2018","1,028.74","1,032.33","1,045.14","1,027.84","12.20M","-0.37%"
"Nov 16, 2018","1,032.60","1,028.93","1,042.72","1,024.99","12.22M","0.37%"
"Nov 15, 2018","1,028.78","1,048.88","1,055.06","1,027.33","13.50M","-1.89%"
"Nov 14, 2018","1,048.55","1,047.40","1,053.11","1,041.97","14.81M","0.07%"
"Nov 13, 2018","1,047.85","1,057.99","1,063.29","1,044.09","18.05M","-0.89%"
"Nov 12, 2018","1,057.31","1,064.22","1,069.48","1,056.95","12.55M","-0.67%"
"Nov 09, 2018","1,064.45","1,064.82","1,065.74","1,053.98","18.45M","-0.06%"
"Nov 08, 2018","1,065.04","1,056.42","1,076.54","1,056.42","17.85M","0.82%"
"Nov 07, 2018","1,056.38","1,041.05","1,057.40","1,041.05","20.21M","1.59%"
"Nov 06, 2018","1,039.88","1,034.81","1,042.15","1,027.25","19.70M","0.59%"
"Nov 05, 2018","1,033.79","1,046.62","1,046.88","1,029.04","12.00M","-1.23%"
"Nov 02, 2018","1,046.62","1,041.06","1,057.07","1,041.06","15.11M","0.70%"
"Nov 01, 2018","1,039.39","1,025.48","1,047.66","1,025.39","18.02M","1.42%"
"Oct 31, 2018","1,024.81","1,013.41","1,028.99","1,013.41","16.63M","1.38%"
"Oct 30, 2018","1,010.82","1,015.78","1,019.12","997.15","14.04M","-0.50%"
"Oct 29, 2018","1,015.86","993.02","1,020.04","993.02","11.37M","2.37%"
"Oct 26, 2018","992.34","999.78","1,006.04","989.51","14.84M","-0.56%"
"Oct 25, 2018","997.96","1,008.76","1,008.76","993.34","15.85M","-1.32%"
"Oct 24, 2018","1,011.29","1,010.71","1,022.28","1,005.17","14.13M","0.11%"
"Oct 23, 2018","1,010.20","1,040.93","1,040.93","1,009.00","15.34M","-2.99%"
"Oct 22, 2018","1,041.35","1,047.11","1,055.01","1,038.78","10.27M","-0.41%"
"Oct 19, 2018","1,045.67","1,053.32","1,054.59","1,034.95","13.71M","-0.92%"
"Oct 18, 2018","1,055.38","1,045.89","1,059.65","1,045.88","12.43M","0.89%"
"Oct 17, 2018","1,046.07","1,047.04","1,057.43","1,042.04","13.27M","-0.12%"
"Oct 16, 2018","1,047.37","1,023.74","1,047.37","1,022.84","12.56M","2.36%"
"Oct 15, 2018","1,023.20","1,026.61","1,028.04","1,014.11","11.56M","-0.32%"
"Oct 12, 2018","1,026.50","1,019.23","1,032.33","1,019.23","18.57M","1.28%"
"Oct 11, 2018","1,013.49","1,010.42","1,021.40","985.87","20.51M","-0.53%"
"Oct 10, 2018","1,018.87","1,042.69","1,042.70","1,018.86","16.28M","-2.25%"
"Oct 09, 2018","1,042.30","1,045.60","1,048.85","1,029.53","18.26M","-0.30%"
"Oct 08, 2018","1,045.42","1,068.36","1,068.36","1,038.05","17.14M","-2.19%"
"Oct 05, 2018","1,068.83","1,075.05","1,077.41","1,058.57","25.69M","-0.57%"
"Oct 04, 2018","1,075.00","1,114.19","1,114.19","1,071.62","24.37M","-3.73%"
"Oct 03, 2018","1,116.68","1,120.82","1,123.59","1,115.51","12.83M","-0.32%"
"Oct 02, 2018","1,120.31","1,122.03","1,122.99","1,117.62","14.34M","-0.15%"
"Oct 01, 2018","1,121.98","1,120.00","1,128.43","1,119.89","12.46M","0.17%"
"Sep 28, 2018","1,120.06","1,119.24","1,124.73","1,116.59","16.17M","-0.06%"
"Sep 27, 2018","1,120.78","1,125.84","1,125.84","1,113.22","15.08M","-0.49%"
"Sep 26, 2018","1,126.31","1,127.62","1,127.83","1,121.86","11.68M","-0.13%"
"Sep 25, 2018","1,127.79","1,119.29","1,128.73","1,117.99","11.96M","0.88%"
"Sep 24, 2018","1,117.94","1,127.06","1,127.06","1,117.35","12.65M","-0.82%"
"Sep 21, 2018","1,127.20","1,125.87","1,133.18","1,125.87","24.31M","0.25%"
"Sep 20, 2018","1,124.39","1,115.17","1,125.47","1,115.17","15.73M","0.82%"
"Sep 19, 2018","1,115.26","1,121.89","1,121.89","1,111.10","23.84M","-0.46%"
"Sep 18, 2018","1,120.40","1,115.82","1,123.05","1,115.21","18.17M","0.42%"
"Sep 17, 2018","1,115.76","1,121.52","1,122.47","1,115.70","12.33M","-0.71%"
"Sep 14, 2018","1,123.77","1,130.75","1,134.91","1,117.91","16.90M","-0.48%"
"Sep 13, 2018","1,129.24","1,132.67","1,137.75","1,128.72","13.45M","-0.26%"
"Sep 12, 2018","1,132.21","1,128.71","1,135.86","1,126.07","13.13M","0.39%"
"Sep 11, 2018","1,127.78","1,135.81","1,138.42","1,126.25","11.99M","-0.67%"
"Sep 10, 2018","1,135.44","1,135.80","1,139.24","1,131.88","13.72M","-0.11%"
"Sep 07, 2018","1,136.74","1,138.26","1,143.97","1,126.31","16.86M","-0.13%"
"Sep 06, 2018","1,138.25","1,136.73","1,143.73","1,135.47","12.98M","0.13%"
"Sep 05, 2018","1,136.81","1,154.01","1,154.01","1,136.57","32.27M","-1.53%"
"Sep 04, 2018","1,154.52","1,167.82","1,167.90","1,147.76","20.11M","-1.13%"
"Sep 03, 2018","1,167.67","1,170.86","1,173.60","1,162.52","9.42M","-0.33%"
"Aug 31, 2018","1,171.54","1,177.28","1,177.28","1,170.29","18.12M","-0.55%"
"Aug 30, 2018","1,178.00","1,175.57","1,178.68","1,168.95","10.57M","0.16%"
"Aug 29, 2018","1,176.14","1,176.31","1,179.36","1,169.88","11.02M","-0.04%"
"Aug 28, 2018","1,176.65","1,175.48","1,181.75","1,170.69","11.83M","0.16%"
"Aug 27, 2018","1,174.73","1,163.41","1,175.55","1,163.41","9.34M","0.97%"
"Aug 24, 2018","1,163.49","1,157.08","1,164.27","1,155.70","11.70M","0.60%"
"Aug 23, 2018","1,156.52","1,159.07","1,165.99","1,155.65","17.72M","-0.22%"
"Aug 22, 2018","1,159.12","1,152.50","1,162.59","1,152.37","13.64M","0.57%"
"Aug 21, 2018","1,152.54","1,148.48","1,156.79","1,146.25","14.02M","0.37%"
"Aug 20, 2018","1,148.26","1,140.91","1,151.05","1,140.91","12.92M","0.72%"
"Aug 17, 2018","1,140.04","1,140.84","1,145.92","1,138.30","11.79M","-0.03%"
"Aug 16, 2018","1,140.35","1,129.85","1,140.35","1,129.85","13.73M","0.99%"
"Aug 15, 2018","1,129.17","1,143.39","1,146.41","1,128.74","14.91M","-1.20%"
"Aug 14, 2018","1,142.91","1,142.82","1,148.75","1,139.55","16.14M","0.06%"
"Aug 13, 2018","1,142.17","1,133.96","1,144.17","1,130.24","14.82M","0.66%"
"Aug 10, 2018","1,134.73","1,139.48","1,139.48","1,131.09","10.67M","-0.49%"
"Aug 09, 2018","1,140.35","1,131.49","1,140.81","1,130.68","19.99M","0.80%"
"Aug 08, 2018","1,131.30","1,148.11","1,148.30","1,127.98","18.57M","-1.50%"
"Aug 07, 2018","1,148.52","1,153.14","1,153.18","1,138.01","17.99M","-0.45%"
"Aug 06, 2018","1,153.67","1,159.69","1,164.05","1,152.85","10.71M","-0.48%"
"Aug 03, 2018","1,159.19","1,157.36","1,163.79","1,157.36","7.66M","0.17%"
"Aug 02, 2018","1,157.22","1,158.64","1,162.06","1,154.66","9.32M","-0.28%"
"Aug 01, 2018","1,160.48","1,157.30","1,165.55","1,156.97","8.18M","0.30%"
"Jul 31, 2018","1,157.03","1,164.53","1,167.20","1,153.14","12.11M","-0.65%"
"Jul 30, 2018","1,164.57","1,168.13","1,171.13","1,163.48","6.72M","-0.41%"
"Jul 27, 2018","1,169.41","1,170.40","1,172.02","1,166.16","6.68M","-0.08%"
"Jul 26, 2018","1,170.39","1,155.60","1,171.06","1,155.60","11.34M","1.21%"
"Jul 25, 2018","1,156.42","1,152.58","1,159.41","1,149.46","9.77M","0.28%"
"Jul 24, 2018","1,153.23","1,143.53","1,155.62","1,143.18","8.35M","0.84%"
"Jul 23, 2018","1,143.64","1,146.18","1,147.59","1,141.05","6.46M","-0.25%"
"Jul 20, 2018","1,146.51","1,137.27","1,146.52","1,136.39","8.67M","0.86%"
"Jul 19, 2018","1,136.79","1,132.51","1,140.71","1,128.50","14.07M","0.40%"
"Jul 18, 2018","1,132.30","1,139.08","1,139.54","1,128.70","15.36M","-0.56%"
"Jul 17, 2018","1,138.71","1,128.39","1,138.71","1,128.39","8.03M","0.99%"
"Jul 16, 2018","1,127.52","1,130.87","1,135.32","1,125.78","7.09M","-0.20%"
"Jul 13, 2018","1,129.80","1,131.34","1,135.21","1,128.16","9.00M","0.12%"
"Jul 12, 2018","1,128.50","1,117.46","1,129.42","1,117.46","8.31M","1.23%"
"Jul 11, 2018","1,114.76","1,120.22","1,120.22","1,108.19","8.59M","-0.55%"
"Jul 10, 2018","1,120.89","1,110.95","1,122.18","1,110.69","9.51M","1.04%"
"Jul 09, 2018","1,109.31","1,100.61","1,110.16","1,100.49","9.63M","0.85%"
"Jul 06, 2018","1,100.00","1,094.30","1,101.01","1,089.97","11.77M","0.55%"
"Jul 05, 2018","1,094.00","1,099.34","1,104.58","1,090.69","12.02M","-0.51%"
"Jul 04, 2018","1,099.65","1,099.00","1,099.81","1,090.98","10.82M","0.06%"
"Jul 03, 2018","1,098.98","1,090.03","1,101.62","1,090.03","11.66M","0.83%"
"Jul 02, 2018","1,089.92","1,096.33","1,096.33","1,084.85","9.13M","-0.67%"
"Jun 29, 2018","1,097.24","1,089.11","1,101.85","1,089.11","13.12M","0.92%"
"Jun 28, 2018","1,087.24","1,100.24","1,106.69","1,084.21","14.24M","-1.28%"
"Jun 27, 2018","1,101.32","1,098.71","1,102.20","1,082.08","13.68M","0.25%"
"Jun 26, 2018","1,098.62","1,114.92","1,114.92","1,097.14","12.78M","-1.44%"
"Jun 25, 2018","1,114.69","1,124.58","1,128.67","1,114.69","11.64M","-0.86%"
"Jun 22, 2018","1,124.37","1,119.75","1,127.32","1,119.51","9.19M","0.47%"
"Jun 21, 2018","1,119.14","1,122.11","1,133.99","1,117.67","16.28M","-0.24%"
"Jun 20, 2018","1,121.84","1,111.41","1,123.48","1,111.41","17.31M","0.96%"
"Jun 19, 2018","1,111.13","1,117.46","1,117.46","1,105.66","9.47M","-0.81%"
"Jun 18, 2018","1,120.17","1,134.24","1,134.42","1,118.30","13.03M","-1.28%"
"Jun 15, 2018","1,134.65","1,134.00","1,139.72","1,129.54","11.31M","0.04%"
"Jun 14, 2018","1,134.16","1,123.77","1,138.47","1,121.97","14.38M","0.79%"
"Jun 13, 2018","1,125.23","1,120.92","1,127.16","1,120.75","12.72M","0.36%"
"Jun 12, 2018","1,121.23","1,119.81","1,124.42","1,119.81","12.30M","0.16%"
"Jun 11, 2018","1,119.42","1,112.55","1,121.18","1,112.55","11.60M","0.66%"
"Jun 08, 2018","1,112.12","1,117.64","1,117.64","1,105.98","12.66M","-0.53%"
"Jun 07, 2018","1,118.10","1,126.21","1,130.32","1,117.25","10.11M","-0.62%"
"Jun 06, 2018","1,125.04","1,133.73","1,133.73","1,121.83","14.04M","-0.69%"
"Jun 04, 2018","1,132.88","1,131.30","1,140.57","1,131.30","13.62M","0.26%"
"Jun 01, 2018","1,129.99","1,113.72","1,130.88","1,113.72","8.80M","1.47%"
"May 31, 2018","1,113.59","1,110.94","1,124.31","1,110.94","32.79M","0.39%"
"May 30, 2018","1,109.30","1,105.08","1,109.44","1,099.35","11.41M","0.20%"
"May 29, 2018","1,107.09","1,118.18","1,118.18","1,099.48","14.34M","-1.08%"
"May 28, 2018","1,119.17","1,135.34","1,138.64","1,118.39","10.51M","-1.33%"
"May 25, 2018","1,134.28","1,130.56","1,140.28","1,130.56","12.99M","0.41%"
"May 24, 2018","1,129.69","1,139.89","1,143.81","1,128.11","12.37M","-1.13%"
"May 23, 2018","1,142.65","1,143.53","1,144.65","1,134.06","14.22M","-0.12%"
"May 22, 2018","1,143.98","1,139.96","1,147.59","1,138.73","15.59M","0.39%"
"May 18, 2018","1,139.54","1,143.01","1,145.98","1,137.83","13.61M","-0.30%"
"May 17, 2018","1,143.02","1,141.71","1,143.51","1,132.07","15.28M","-0.06%"
"May 16, 2018","1,143.74","1,143.82","1,144.69","1,135.75","14.49M","-0.04%"
"May 15, 2018","1,144.21","1,160.72","1,161.54","1,143.98","23.26M","-1.51%"
"May 14, 2018","1,161.74","1,157.99","1,170.22","1,157.99","22.77M","0.39%"
"May 09, 2018","1,157.24","1,157.04","1,160.03","1,153.60","18.86M","-0.02%"
"May 08, 2018","1,157.49","1,149.76","1,157.49","1,145.73","18.97M","0.84%"
"May 07, 2018","1,147.82","1,131.56","1,147.82","1,131.56","16.65M","1.51%"
"May 04, 2018","1,130.77","1,132.98","1,137.05","1,127.36","16.54M","-0.15%"
"May 03, 2018","1,132.43","1,134.07","1,141.53","1,130.77","15.32M","-0.12%"
"May 02, 2018","1,133.84","1,116.98","1,137.38","1,116.98","23.86M","1.53%"
"May 01, 2018","1,116.76","1,113.09","1,123.90","1,112.93","6.64M","0.34%"
"Apr 30, 2018","1,113.02","1,115.08","1,121.41","1,110.78","17.02M","-0.12%"
"Apr 26, 2018","1,114.38","1,102.37","1,114.92","1,099.88","14.56M","1.14%"
"Apr 25, 2018","1,101.80","1,114.06","1,114.06","1,098.49","13.95M","-1.15%"
"Apr 24, 2018","1,114.60","1,115.48","1,120.89","1,111.37","14.68M","-0.02%"
"Apr 23, 2018","1,114.87","1,111.72","1,116.69","1,109.30","12.22M","0.38%"
"Apr 20, 2018","1,110.62","1,111.51","1,114.39","1,107.92","13.54M","-0.12%"
"Apr 19, 2018","1,111.93","1,115.03","1,120.64","1,111.38","13.17M","-0.28%"
"Apr 18, 2018","1,115.02","1,111.77","1,115.54","1,109.18","7.34M","0.29%"
"Apr 17, 2018","1,111.77","1,099.88","1,111.77","1,099.88","9.70M","1.09%"
"Apr 16, 2018","1,099.79","1,102.64","1,111.31","1,099.41","10.59M","-0.29%"
"Apr 13, 2018","1,102.95","1,106.46","1,112.32","1,102.95","12.16M","-0.20%"
"Apr 12, 2018","1,105.16","1,103.63","1,109.16","1,101.02","16.41M","0.21%"
"Apr 11, 2018","1,102.88","1,116.44","1,116.44","1,101.17","18.70M","-1.23%"
"Apr 10, 2018","1,116.64","1,114.30","1,118.43","1,112.13","20.27M","0.35%"
"Apr 09, 2018","1,112.75","1,110.90","1,119.55","1,110.24","15.20M","0.29%"
"Apr 06, 2018","1,109.58","1,107.86","1,113.64","1,104.92","16.98M","-0.04%"
"Apr 05, 2018","1,110.04","1,096.92","1,110.16","1,096.92","16.37M","1.65%"
"Apr 04, 2018","1,092.03","1,110.69","1,112.28","1,090.18","17.81M","-1.66%"
"Apr 03, 2018","1,110.44","1,115.04","1,116.33","1,103.33","21.15M","-0.39%"
"Mar 28, 2018","1,114.82","1,107.04","1,118.48","1,101.25","15.67M","0.60%"
"Mar 27, 2018","1,108.20","1,108.33","1,120.25","1,107.20","15.94M","0.29%"
"Mar 26, 2018","1,104.96","1,111.11","1,119.04","1,104.75","15.81M","-0.45%"
"Mar 23, 2018","1,109.99","1,104.10","1,112.57","1,094.38","-","0.07%"
"Mar 22, 2018","1,109.26","1,122.46","1,126.98","1,109.14","-","-1.36%"
"Mar 21, 2018","1,124.51","1,124.50","1,126.95","1,123.53","-","0.00%"
"Mar 20, 2018","1,124.50","1,123.89","1,126.58","1,115.16","-","0.06%"
"Mar 19, 2018","1,123.77","1,129.72","1,129.79","1,120.25","-","-0.47%"
"Mar 16, 2018","1,129.10","1,127.95","1,132.42","1,125.93","-","-0.37%"
"Mar 15, 2018","1,133.34","1,129.44","1,135.32","1,125.26","-","0.39%"
"Mar 14, 2018","1,128.92","1,133.19","1,137.13","1,128.92","-","-0.38%"
"Mar 13, 2018","1,133.20","1,140.63","1,147.43","1,133.13","-","-0.67%"
"Mar 12, 2018","1,140.80","1,140.29","1,143.96","1,139.57","-","0.16%"
"Mar 09, 2018","1,138.93","1,138.40","1,140.98","1,134.55","-","-0.06%"
"Mar 08, 2018","1,139.57","1,128.49","1,139.98","1,127.10","-","1.00%"
"Mar 07, 2018","1,128.32","1,122.74","1,128.32","1,117.74","-","0.38%"
"Mar 06, 2018","1,124.02","1,123.16","1,132.80","1,123.16","-","0.22%"
"Mar 05, 2018","1,121.57","1,116.62","1,124.54","1,112.89","-","0.40%"
"Mar 02, 2018","1,117.06","1,132.44","1,132.44","1,114.65","-","-1.58%"
"Mar 01, 2018","1,135.01","1,147.00","1,147.00","1,131.83","-","-1.12%"
"Feb 28, 2018","1,147.89","1,147.02","1,151.77","1,141.80","-","-0.11%"
"Feb 27, 2018","1,149.13","1,161.98","1,162.05","1,144.48","-","-1.10%"
"Feb 26, 2018","1,161.94","1,153.99","1,164.65","1,153.99","-","0.80%"
"Feb 23, 2018","1,152.76","1,144.35","1,154.71","1,142.23","-","0.78%"
"Feb 22, 2018","1,143.84","1,132.43","1,145.94","1,128.61","-","1.08%"
"Feb 21, 2018","1,131.65","1,132.51","1,133.18","1,125.36","-","-0.04%"
"Feb 20, 2018","1,132.07","1,130.02","1,133.78","1,124.09","-","0.08%"
"Feb 19, 2018","1,131.14","1,142.25","1,144.48","1,130.66","-","-0.99%"
"Feb 16, 2018","1,142.49","1,124.51","1,143.53","1,124.51","-","1.83%"
"Feb 15, 2018","1,121.96","1,115.78","1,127.33","1,115.78","-","0.57%"
"Feb 14, 2018","1,115.55","1,104.52","1,117.15","1,101.97","-","1.10%"
"Feb 13, 2018","1,103.46","1,112.05","1,113.68","1,101.82","-","-0.76%"
"Feb 12, 2018","1,111.86","1,092.60","1,115.87","1,092.60","-","2.12%"
"Feb 09, 2018","1,088.77","1,085.73","1,095.46","1,076.92","-","-0.18%"
"Feb 08, 2018","1,090.78","1,098.09","1,104.06","1,088.86","-","-0.68%"
"Feb 07, 2018","1,098.24","1,089.11","1,099.63","1,080.26","-","1.40%"
"Feb 06, 2018","1,083.06","1,089.66","1,095.38","1,055.38","-","-1.24%"
"Feb 05, 2018","1,096.67","1,098.18","1,099.00","1,086.21","-","-0.24%"
"Feb 02, 2018","1,099.26","1,123.13","1,126.53","1,099.26","-","-1.66%"
"Feb 01, 2018","1,117.79","1,137.18","1,143.08","1,116.91","-","-1.65%"
"Jan 31, 2018","1,136.52","1,141.21","1,145.24","1,136.44","-","-0.37%"
"Jan 30, 2018","1,140.74","1,149.73","1,153.71","1,140.74","-","-0.79%"
"Jan 29, 2018","1,149.85","1,150.25","1,155.22","1,148.93","-","-0.16%"
"Jan 26, 2018","1,151.75","1,143.47","1,154.34","1,143.21","-","0.85%"
"Jan 25, 2018","1,142.07","1,160.17","1,160.17","1,140.27","-","-1.57%"
"Jan 24, 2018","1,160.31","1,165.02","1,171.43","1,160.31","-","-0.45%"
"Jan 23, 2018","1,165.55","1,165.63","1,169.59","1,162.51","-","0.07%"
"Jan 22, 2018","1,164.75","1,162.41","1,165.77","1,159.60","-","0.20%"
"Jan 19, 2018","1,162.38","1,155.37","1,163.73","1,155.37","-","0.71%"
"Jan 18, 2018","1,154.19","1,157.86","1,163.05","1,152.86","-","-0.24%"
"Jan 17, 2018","1,156.99","1,150.87","1,159.02","1,148.18","-","0.34%"
"Jan 16, 2018","1,153.11","1,150.55","1,155.53","1,146.93","-","0.22%"
"Jan 15, 2018","1,150.55","1,151.26","1,152.73","1,149.18","-","-0.06%"
"Jan 12, 2018","1,151.26","1,157.05","1,157.98","1,149.97","-","-0.68%"
"Jan 11, 2018","1,159.10","1,170.38","1,170.54","1,152.75","-","-0.92%"
"Jan 10, 2018","1,169.88","1,177.11","1,178.12","1,166.96","-","-0.52%"
"Jan 09, 2018","1,175.94","1,174.84","1,181.33","1,174.17","-","0.14%"
"Jan 08, 2018","1,174.29","1,165.24","1,175.07","1,165.24","-","0.87%"
"Jan 05, 2018","1,164.20","1,156.03","1,164.20","1,155.67","-","0.77%"
"Jan 04, 2018","1,155.34","1,152.83","1,157.32","1,150.64","-","0.24%"
"Jan 03, 2018","1,152.57","1,149.15","1,155.59","1,149.11","-","0.30%"
"Jan 02, 2018","1,149.07","1,145.83","1,152.92","1,139.78","-","0.30%"
"Dec 29, 2017","1,145.64","1,145.60","1,150.02","1,144.25","-","-0.03%"
"Dec 28, 2017","1,145.95","1,150.05","1,151.59","1,143.72","-","-0.33%"
"Dec 27, 2017","1,149.76","1,146.00","1,155.63","1,145.76","-","0.30%"
"Dec 22, 2017","1,146.33","1,142.04","1,147.05","1,141.49","-","0.38%"
"Dec 21, 2017","1,142.03","1,135.66","1,143.51","1,134.64","-","0.54%"
"Dec 20, 2017","1,135.91","1,139.63","1,143.20","1,134.90","-","-0.25%"
"Dec 19, 2017","1,138.78","1,139.14","1,144.22","1,138.72","-","-0.06%"
"Dec 18, 2017","1,139.47","1,123.33","1,141.67","1,123.33","-","1.51%"
"Dec 15, 2017","1,122.52","1,131.79","1,131.79","1,120.93","-","-0.91%"
"Dec 14, 2017","1,132.81","1,128.83","1,138.97","1,128.83","-","0.35%"
"Dec 13, 2017","1,128.88","1,132.96","1,134.03","1,127.68","-","-0.36%"
"Dec 12, 2017","1,132.96","1,131.40","1,133.60","1,124.35","-","0.17%"
"Dec 11, 2017","1,131.08","1,129.55","1,134.74","1,128.20","-","0.23%"
"Dec 08, 2017","1,128.45","1,116.70","1,128.76","1,116.70","-","1.01%"
"Dec 07, 2017","1,117.19","1,111.59","1,123.84","1,111.59","-","0.46%"
"Dec 06, 2017","1,112.06","1,107.28","1,114.67","1,103.64","-","0.42%"
"Dec 05, 2017","1,107.44","1,119.97","1,124.52","1,106.39","-","-1.13%"
"Dec 04, 2017","1,120.09","1,126.39","1,129.86","1,120.04","-","-0.42%"
"Dec 01, 2017","1,124.77","1,129.39","1,137.68","1,121.35","-","-0.43%"
"Nov 30, 2017","1,129.59","1,121.36","1,130.73","1,117.92","-","0.73%"
"Nov 29, 2017","1,121.36","1,123.87","1,131.51","1,117.38","-","0.02%"
"Nov 28, 2017","1,121.13","1,105.94","1,122.36","1,098.78","-","1.37%"
"Nov 27, 2017","1,105.94","1,113.76","1,113.76","1,105.86","-","-0.70%"
"Nov 24, 2017","1,113.76","1,118.54","1,119.68","1,112.81","-","-0.43%"
"Nov 23, 2017","1,118.56","1,124.43","1,124.43","1,116.96","-","-0.53%"
"Nov 22, 2017","1,124.56","1,124.89","1,130.58","1,123.24","-","-0.03%"
"Nov 21, 2017","1,124.89","1,127.88","1,127.95","1,120.28","-","-0.27%"
"Nov 20, 2017","1,127.88","1,127.61","1,129.71","1,118.76","-","0.02%"
"Nov 17, 2017","1,127.61","1,130.95","1,134.20","1,123.35","-","-0.30%"
"Nov 16, 2017","1,130.95","1,117.35","1,131.63","1,117.35","-","1.27%"
"Nov 15, 2017","1,116.72","1,116.02","1,117.73","1,105.83","-","0.06%"
"Nov 14, 2017","1,116.02","1,123.19","1,126.81","1,112.06","-","-0.64%"
"Nov 13, 2017","1,123.19","1,134.46","1,136.64","1,118.20","-","-0.99%"
"Nov 10, 2017","1,134.46","1,138.45","1,142.77","1,131.94","-","-0.35%"
"Nov 09, 2017","1,138.45","1,174.48","1,175.33","1,136.37","-","-3.07%"
"Nov 08, 2017","1,174.48","1,169.09","1,174.94","1,167.83","-","0.46%"
"Nov 07, 2017","1,169.09","1,179.33","1,181.47","1,169.09","-","-1.00%"
"Nov 06, 2017","1,180.85","1,170.20","1,182.71","1,169.93","-","0.95%"
"Nov 03, 2017","1,169.71","1,183.24","1,185.95","1,168.58","-","-1.14%"
"Nov 02, 2017","1,183.24","1,196.67","1,205.25","1,178.86","-","-1.12%"
"Nov 01, 2017","1,196.67","1,195.61","1,201.37","1,193.80","-","0.09%"
"Oct 31, 2017","1,195.61","1,195.49","1,198.25","1,191.50","-","0.01%"
"Oct 30, 2017","1,195.49","1,188.38","1,195.55","1,186.99","-","0.60%"
"Oct 27, 2017","1,188.38","1,180.90","1,189.96","1,180.90","-","0.72%"
"Oct 26, 2017","1,179.94","1,176.65","1,182.08","1,173.25","-","0.28%"
"Oct 25, 2017","1,176.65","1,174.18","1,182.58","1,171.60","-","0.21%"
"Oct 24, 2017","1,174.18","1,182.94","1,182.94","1,172.53","-","-0.74%"
"Oct 23, 2017","1,182.94","1,182.32","1,186.49","1,180.51","-","0.05%"
"Oct 20, 2017","1,182.32","1,178.95","1,185.85","1,178.95","-","0.32%"
"Oct 19, 2017","1,178.54","1,186.20","1,194.29","1,176.25","-","-0.65%"
"Oct 18, 2017","1,186.20","1,176.11","1,188.59","1,176.11","-","0.86%"
"Oct 17, 2017","1,176.11","1,182.08","1,184.06","1,173.11","-","-0.51%"
"Oct 16, 2017","1,182.08","1,179.28","1,185.03","1,174.45","-","0.23%"
"Oct 13, 2017","1,179.38","1,190.82","1,190.82","1,176.91","-","-0.96%"
"Oct 12, 2017","1,190.82","1,192.33","1,196.58","1,190.42","-","-0.17%"
"Oct 11, 2017","1,192.85","1,185.75","1,193.35","1,185.73","-","0.60%"
"Oct 10, 2017","1,185.75","1,183.27","1,187.59","1,179.83","-","0.21%"
"Oct 09, 2017","1,183.27","1,182.02","1,184.59","1,179.82","-","0.11%"
"Oct 06, 2017","1,182.02","1,187.61","1,191.59","1,181.41","-","-0.47%"
"Oct 05, 2017","1,187.61","1,187.35","1,190.61","1,183.90","-","0.02%"
"Oct 04, 2017","1,187.35","1,184.51","1,187.74","1,182.82","-","0.24%"
"Oct 03, 2017","1,184.51","1,185.14","1,187.11","1,183.35","-","-0.05%"
"Oct 02, 2017","1,185.14","1,173.99","1,185.21","1,173.99","-","0.95%"
"Sep 29, 2017","1,173.99","1,177.33","1,178.57","1,172.57","-","-0.25%"
"Sep 28, 2017","1,176.92","1,169.83","1,177.37","1,169.83","-","0.65%"
"Sep 27, 2017","1,169.30","1,166.52","1,171.11","1,161.10","-","0.24%"
"Sep 26, 2017","1,166.52","1,177.43","1,177.43","1,166.33","-","-0.93%"
"Sep 25, 2017","1,177.43","1,168.92","1,179.32","1,167.33","-","0.73%"
"Sep 22, 2017","1,168.92","1,166.58","1,170.97","1,163.38","-","0.19%"
"Sep 21, 2017","1,166.67","1,164.74","1,172.81","1,163.75","-","0.17%"
"Sep 20, 2017","1,164.74","1,160.43","1,166.98","1,160.43","-","0.37%"
"Sep 19, 2017","1,160.43","1,158.35","1,162.47","1,156.24","-","0.18%"
"Sep 18, 2017","1,158.35","1,149.18","1,160.25","1,149.18","-","0.80%"
"Sep 15, 2017","1,149.18","1,171.82","1,171.82","1,149.18","-","-1.93%"
"Sep 14, 2017","1,171.82","1,170.83","1,172.19","1,168.67","-","0.08%"
"Sep 13, 2017","1,170.83","1,173.52","1,173.52","1,167.66","-","-0.23%"
"Sep 12, 2017","1,173.52","1,173.92","1,179.54","1,169.42","-","-0.03%"
"Sep 11, 2017","1,173.92","1,164.25","1,174.50","1,164.08","-","0.83%"
"Sep 08, 2017","1,164.25","1,164.63","1,165.55","1,161.62","-","-0.03%"
"Sep 07, 2017","1,164.63","1,157.82","1,165.22","1,154.08","-","0.59%"
"Sep 06, 2017","1,157.82","1,166.91","1,167.18","1,153.98","-","-0.78%"
"Sep 05, 2017","1,166.91","1,174.86","1,175.35","1,165.93","-","-0.68%"
"Sep 04, 2017","1,174.86","1,181.04","1,181.04","1,173.58","-","-0.52%"
"Sep 01, 2017","1,181.04","1,174.72","1,182.03","1,174.72","-","0.54%"
"Aug 31, 2017","1,174.72","1,161.94","1,175.96","1,161.94","-","1.10%"
"Aug 30, 2017","1,161.94","1,155.54","1,163.76","1,155.54","-","0.55%"
"Aug 29, 2017","1,155.54","1,166.47","1,166.47","1,150.67","-","-0.94%"
"Aug 28, 2017","1,166.47","1,168.22","1,170.32","1,163.91","-","-0.15%"
"Aug 25, 2017","1,168.22","1,170.94","1,174.57","1,168.22","-","-0.23%"
"Aug 24, 2017","1,170.94","1,159.56","1,172.72","1,158.17","-","0.98%"
"Aug 23, 2017","1,159.56","1,167.26","1,167.26","1,158.39","-","-0.66%"
"Aug 22, 2017","1,167.26","1,152.50","1,167.91","1,152.28","-","1.28%"
"Aug 21, 2017","1,152.50","1,150.31","1,160.31","1,148.94","-","0.19%"
"Aug 18, 2017","1,150.31","1,152.67","1,154.25","1,145.70","-","-0.20%"
"Aug 17, 2017","1,152.67","1,165.20","1,169.20","1,152.67","-","-1.08%"
"Aug 16, 2017","1,165.20","1,165.21","1,174.65","1,162.39","-","-0.00%"
"Aug 15, 2017","1,165.21","1,167.06","1,171.35","1,163.46","-","-0.16%"
"Aug 14, 2017","1,167.06","1,162.46","1,171.75","1,162.46","-","0.40%"
"Aug 11, 2017","1,162.46","1,159.95","1,162.99","1,145.77","-","0.22%"
"Aug 10, 2017","1,159.95","1,170.27","1,170.95","1,159.69","-","-0.88%"
"Aug 09, 2017","1,170.27","1,161.08","1,171.19","1,159.52","-","0.79%"
"Aug 08, 2017","1,161.08","1,170.20","1,170.36","1,157.22","-","-0.78%"
"Aug 07, 2017","1,170.20","1,169.53","1,173.34","1,168.37","-","0.06%"
"Aug 04, 2017","1,169.53","1,159.88","1,169.53","1,157.23","-","0.83%"
"Aug 03, 2017","1,159.88","1,165.11","1,167.88","1,158.66","-","-0.44%"
"Aug 02, 2017","1,164.98","1,169.88","1,174.96","1,162.86","-","-0.42%"
"Aug 01, 2017","1,169.88","1,168.66","1,172.23","1,164.85","-","0.10%"
"Jul 31, 2017","1,168.66","1,164.74","1,172.96","1,164.65","-","0.34%"
"Jul 28, 2017","1,164.72","1,170.59","1,170.83","1,161.42","-","-0.50%"
"Jul 27, 2017","1,170.59","1,166.96","1,171.07","1,166.38","-","0.28%"
"Jul 26, 2017","1,167.34","1,161.62","1,170.18","1,160.01","-","0.48%"
"Jul 25, 2017","1,161.72","1,154.53","1,164.98","1,153.48","-","0.66%"
"Jul 24, 2017","1,154.14","1,167.11","1,169.30","1,152.78","-","-1.08%"
"Jul 21, 2017","1,166.74","1,175.06","1,180.13","1,162.90","-","-0.72%"
"Jul 20, 2017","1,175.26","1,176.01","1,181.11","1,173.58","-","-0.06%"
"Jul 19, 2017","1,175.97","1,175.15","1,180.40","1,172.59","-","0.09%"
"Jul 18, 2017","1,174.91","1,177.72","1,181.22","1,172.74","-","-0.24%"
"Jul 17, 2017","1,177.72","1,172.06","1,178.42","1,170.79","-","0.49%"
"Jul 14, 2017","1,172.01","1,165.94","1,172.59","1,165.94","-","0.51%"
"Jul 13, 2017","1,166.01","1,166.51","1,167.68","1,163.58","-","-0.03%"
"Jul 12, 2017","1,166.34","1,155.60","1,167.17","1,154.64","-","0.93%"
"Jul 11, 2017","1,155.60","1,158.68","1,161.80","1,151.88","-","-0.27%"
"Jul 10, 2017","1,158.68","1,151.00","1,160.37","1,151.00","-","0.67%"
"Jul 07, 2017","1,151.00","1,149.49","1,151.32","1,142.62","-","0.12%"
"Jul 06, 2017","1,149.63","1,158.92","1,161.71","1,146.65","-","-0.80%"
"Jul 05, 2017","1,158.92","1,153.09","1,158.96","1,151.32","-","0.51%"
"Jul 04, 2017","1,153.09","1,156.16","1,156.16","1,150.07","-","-0.27%"
"Jul 03, 2017","1,156.16","1,143.24","1,156.24","1,143.24","-","1.13%"
"Jun 30, 2017","1,143.24","1,136.00","1,146.26","1,128.35","-","0.64%"
"Jun 29, 2017","1,136.00","1,149.43","1,154.71","1,132.96","-","-1.16%"
"Jun 28, 2017","1,149.32","1,151.68","1,151.68","1,140.47","-","-0.20%"
"Jun 27, 2017","1,151.68","1,165.38","1,165.38","1,150.71","-","-1.18%"
"Jun 26, 2017","1,165.38","1,165.52","1,169.86","1,165.38","-","-0.02%"
"Jun 23, 2017","1,165.59","1,167.05","1,167.05","1,162.74","-","-0.12%"
"Jun 22, 2017","1,166.96","1,169.93","1,169.97","1,163.91","-","-0.24%"
"Jun 21, 2017","1,169.76","1,172.15","1,172.79","1,161.06","-","-0.20%"
"Jun 20, 2017","1,172.15","1,176.42","1,179.78","1,172.11","-","-0.36%"
"Jun 19, 2017","1,176.42","1,160.17","1,176.52","1,160.17","-","1.40%"
"Jun 16, 2017","1,160.17","1,153.74","1,161.51","1,153.71","-","0.60%"
"Jun 15, 2017","1,153.30","1,166.69","1,166.69","1,150.04","-","-1.21%"
"Jun 14, 2017","1,167.44","1,165.27","1,175.64","1,165.27","-","0.20%"
"Jun 13, 2017","1,165.09","1,152.99","1,165.51","1,152.99","-","1.05%"
"Jun 12, 2017","1,152.99","1,160.14","1,160.35","1,152.28","-","-0.63%"
"Jun 09, 2017","1,160.29","1,152.42","1,161.47","1,152.42","-","0.68%"
"Jun 08, 2017","1,152.42","1,157.17","1,163.17","1,152.13","-","-0.41%"
"Jun 07, 2017","1,157.17","1,161.44","1,163.13","1,155.43","-","-0.37%"
"Jun 06, 2017","1,161.44","1,161.36","1,165.30","1,159.98","-","-0.05%"
"Jun 02, 2017","1,162.00","1,151.97","1,165.53","1,151.97","-","0.83%"
"Jun 01, 2017","1,152.46","1,150.02","1,155.53","1,147.94","-","0.21%"
"May 31, 2017","1,150.02","1,139.76","1,152.50","1,139.55","-","0.90%"
"May 30, 2017","1,139.78","1,137.41","1,139.78","1,129.36","-","0.21%"
"May 29, 2017","1,137.41","1,143.57","1,143.57","1,136.02","-","-0.57%"
"May 24, 2017","1,143.97","1,143.95","1,144.31","1,138.96","-","0.00%"
"May 23, 2017","1,143.95","1,142.66","1,143.97","1,136.19","-","0.11%"
"May 22, 2017","1,142.70","1,138.08","1,144.43","1,138.08","-","0.41%"
"May 19, 2017","1,138.08","1,130.02","1,140.20","1,130.02","-","0.74%"
"May 18, 2017","1,129.74","1,123.14","1,131.09","1,118.34","-","0.57%"
"May 17, 2017","1,123.30","1,146.06","1,146.06","1,123.30","-","-1.99%"
"May 16, 2017","1,146.06","1,149.54","1,151.03","1,142.73","-","-0.31%"
"May 15, 2017","1,149.64","1,144.92","1,153.44","1,144.92","-","0.45%"
"May 11, 2017","1,144.44","1,147.04","1,151.89","1,140.76","-","-0.18%"
"May 10, 2017","1,146.55","1,136.99","1,146.55","1,132.96","-","0.79%"
"May 09, 2017","1,137.57","1,144.48","1,152.84","1,137.12","-","-0.57%"
"May 08, 2017","1,144.07","1,146.05","1,151.49","1,138.77","-","-0.15%"
"May 05, 2017","1,145.77","1,134.11","1,146.22","1,133.48","-","1.00%"
"May 04, 2017","1,134.40","1,130.44","1,139.22","1,130.44","-","0.42%"
"May 03, 2017","1,129.61","1,135.80","1,139.41","1,129.03","-","0.08%"
"May 02, 2017","1,128.70","1,124.83","1,129.73","1,123.81","-","0.36%"
"May 01, 2017","1,124.61","1,126.25","1,128.82","1,124.51","-","-0.16%"
"Apr 28, 2017","1,126.44","1,120.23","1,127.39","1,118.60","-","0.56%"
"Apr 27, 2017","1,120.12","1,115.17","1,120.56","1,110.37","-","0.45%"
"Apr 26, 2017","1,115.10","1,104.70","1,115.10","1,103.30","-","0.95%"
"Apr 25, 2017","1,104.57","1,098.86","1,105.18","1,098.50","-","0.52%"
"Apr 24, 2017","1,098.86","1,086.61","1,100.67","1,086.61","-","1.51%"
"Apr 21, 2017","1,082.56","1,090.47","1,092.46","1,082.40","-","-0.72%"
"Apr 20, 2017","1,090.44","1,081.37","1,090.51","1,081.37","-","0.82%"
"Apr 19, 2017","1,081.59","1,073.54","1,083.50","1,073.54","-","0.76%"
"Apr 18, 2017","1,073.39","1,088.41","1,089.34","1,070.65","-","-1.39%"
"Apr 12, 2017","1,088.49","1,080.20","1,089.49","1,080.20","-","0.77%"
"Apr 11, 2017","1,080.15","1,080.85","1,084.94","1,075.65","-","-0.05%"
"Apr 10, 2017","1,080.66","1,073.57","1,080.71","1,073.57","-","0.67%"
"Apr 07, 2017","1,073.42","1,077.35","1,077.35","1,069.73","-","-0.41%"
"Apr 06, 2017","1,077.86","1,077.82","1,080.38","1,071.10","-","-0.09%"
"Apr 05, 2017","1,078.86","1,077.41","1,082.03","1,077.17","-","0.21%"
"Apr 04, 2017","1,076.56","1,065.94","1,076.75","1,065.94","-","0.99%"
"Apr 03, 2017","1,066.00","1,075.07","1,078.77","1,066.00","-","-0.84%"
"Mar 31, 2017","1,075.07","1,073.01","1,076.82","1,067.11","-","0.20%"
"Mar 30, 2017","1,072.92","1,068.31","1,073.61","1,068.23","-","0.52%"
"Mar 29, 2017","1,067.40","1,068.06","1,069.38","1,062.47","-","-0.04%"
"Mar 28, 2017","1,067.84","1,063.23","1,068.98","1,063.23","-","0.50%"
"Mar 27, 2017","1,062.49","1,065.84","1,065.84","1,058.50","-","-0.41%"
"Mar 24, 2017","1,066.90","1,064.77","1,067.85","1,062.00","-","0.22%"
"Mar 23, 2017","1,064.53","1,054.30","1,064.73","1,053.27","-","0.97%"
"Mar 22, 2017","1,054.30","1,060.41","1,060.41","1,042.82","-","-0.64%"
"Mar 21, 2017","1,061.12","1,075.62","1,079.34","1,059.71","-","-1.33%"
"Mar 20, 2017","1,075.44","1,075.52","1,076.97","1,072.09","-","-0.02%"
"Mar 17, 2017","1,075.63","1,077.97","1,077.97","1,071.01","-","-0.22%"
"Mar 16, 2017","1,078.01","1,073.08","1,081.15","1,073.08","-","0.46%"
"Mar 15, 2017","1,073.05","1,071.35","1,073.31","1,068.83","-","0.16%"
"Mar 14, 2017","1,071.32","1,070.02","1,073.11","1,067.76","-","0.12%"
"Mar 13, 2017","1,070.02","1,065.99","1,070.02","1,064.84","-","0.42%"
"Mar 10, 2017","1,065.53","1,056.28","1,065.81","1,056.28","-","0.89%"
"Mar 09, 2017","1,056.09","1,057.47","1,058.01","1,050.05","-","-0.13%"
"Mar 08, 2017","1,057.43","1,056.56","1,058.77","1,053.11","-","0.09%"
"Mar 07, 2017","1,056.49","1,061.80","1,062.90","1,055.38","-","-0.51%"
"Mar 06, 2017","1,061.95","1,066.55","1,066.55","1,059.70","-","-0.43%"
"Mar 03, 2017","1,066.51","1,072.54","1,072.54","1,064.51","-","-0.58%"
"Mar 02, 2017","1,072.68","1,072.63","1,076.95","1,072.11","-","0.03%"
"Mar 01, 2017","1,072.33","1,060.60","1,073.19","1,060.60","-","1.13%"
"Feb 28, 2017","1,060.33","1,059.78","1,062.82","1,053.85","-","0.06%"
"Feb 27, 2017","1,059.72","1,061.92","1,065.45","1,057.93","-","-0.13%"
"Feb 24, 2017","1,061.08","1,073.80","1,073.80","1,060.51","-","-1.06%"
"Feb 23, 2017","1,072.43","1,074.75","1,078.08","1,072.39","-","-0.21%"
"Feb 22, 2017","1,074.72","1,076.52","1,077.66","1,069.64","-","-0.20%"
"Feb 21, 2017","1,076.86","1,067.45","1,077.00","1,063.46","-","0.85%"
"Feb 20, 2017","1,067.82","1,072.99","1,076.49","1,066.54","-","-0.42%"
"Feb 17, 2017","1,072.36","1,076.81","1,077.09","1,067.81","-","-0.41%"
"Feb 16, 2017","1,076.81","1,074.91","1,079.19","1,073.78","-","0.19%"
"Feb 15, 2017","1,074.79","1,072.25","1,075.34","1,071.08","-","0.31%"
"Feb 14, 2017","1,071.50","1,071.24","1,074.10","1,067.54","-","-0.01%"
"Feb 13, 2017","1,071.58","1,065.91","1,071.64","1,064.95","-","0.53%"
"Feb 10, 2017","1,065.91","1,060.94","1,067.28","1,058.77","-","0.47%"
"Feb 09, 2017","1,060.94","1,045.18","1,061.03","1,045.18","-","1.54%"
"Feb 08, 2017","1,044.90","1,052.93","1,052.93","1,042.29","-","-0.71%"
"Feb 07, 2017","1,052.38","1,053.41","1,053.42","1,047.25","-","-0.13%"
"Feb 06, 2017","1,053.77","1,060.74","1,063.48","1,053.77","-","-0.66%"
"Feb 03, 2017","1,060.79","1,055.72","1,061.05","1,054.80","-","0.50%"
"Feb 02, 2017","1,055.49","1,065.04","1,065.22","1,049.96","-","-0.53%"
"Feb 01, 2017","1,061.13","1,049.63","1,066.15","1,049.63","-","1.10%"
"Jan 31, 2017","1,049.56","1,048.14","1,055.72","1,047.09","-","0.13%"
"Jan 30, 2017","1,048.15","1,052.46","1,052.46","1,044.15","-","-0.42%"
"Jan 27, 2017","1,052.62","1,045.08","1,052.62","1,043.24","-","0.76%"
"Jan 26, 2017","1,044.71","1,039.02","1,049.54","1,039.02","-","0.57%"
"Jan 25, 2017","1,038.84","1,025.92","1,038.84","1,025.92","-","1.35%"
"Jan 24, 2017","1,024.96","1,026.86","1,031.75","1,023.10","-","-0.13%"
"Jan 23, 2017","1,026.28","1,032.64","1,032.64","1,025.85","-","-0.70%"
"Jan 20, 2017","1,033.49","1,033.44","1,036.09","1,029.06","-","-0.00%"
"Jan 19, 2017","1,033.50","1,030.64","1,035.13","1,029.07","-","0.31%"
"Jan 18, 2017","1,030.35","1,033.60","1,037.08","1,027.04","-","-0.31%"
"Jan 17, 2017","1,033.55","1,038.06","1,038.06","1,031.04","-","-0.46%"
"Jan 16, 2017","1,038.29","1,039.53","1,042.79","1,037.94","-","-0.13%"
"Jan 13, 2017","1,039.68","1,025.05","1,039.68","1,025.05","-","1.44%"
"Jan 12, 2017","1,024.95","1,033.48","1,033.48","1,020.25","-","-0.90%"
"Jan 11, 2017","1,034.27","1,027.33","1,034.34","1,025.47","-","0.78%"
"Jan 10, 2017","1,026.30","1,031.75","1,034.11","1,025.94","-","-0.50%"
"Jan 09, 2017","1,031.50","1,037.59","1,042.46","1,030.29","-","-0.59%"
"Jan 06, 2017","1,037.59","1,035.18","1,040.30","1,033.97","-","0.25%"
"Jan 05, 2017","1,034.99","1,025.84","1,036.18","1,025.59","-","0.90%"
"Jan 04, 2017","1,025.78","1,030.78","1,033.01","1,025.42","-","-0.50%"
"Jan 03, 2017","1,030.89","1,034.61","1,041.93","1,030.88","-","-0.30%"
"Jan 02, 2017","1,034.03","1,015.74","1,035.39","1,014.99","-","1.79%"
"Dec 30, 2016","1,015.88","1,016.78","1,017.09","1,013.65","-","-0.08%"
"Dec 29, 2016","1,016.69","1,012.31","1,016.82","1,007.01","-","0.38%"
"Dec 28, 2016","1,012.81","1,011.34","1,012.81","1,009.02","-","0.10%"
"Dec 27, 2016","1,011.75","1,007.61","1,011.75","1,007.60","-","0.43%"
"Dec 23, 2016","1,007.37","1,005.67","1,009.60","1,003.78","-","0.16%"
"Dec 22, 2016","1,005.73","1,002.89","1,007.46","1,000.51","-","0.28%"
"Dec 21, 2016","1,002.97","1,002.32","1,005.44","1,000.18","-","0.07%"
"Dec 20, 2016","1,002.30","999.76","1,005.79","999.19","-","0.26%"